^C:\USERS\BADUM\DESKTOP\SCHOOL\PROGRAMMING III\ASSIGNMENT 1\ASSIGNMENT 1\DEBUG\ASSIGNMENT 1.OBJ|C:\USERS\BADUM\DESKTOP\SCHOOL\PROGRAMMING III\ASSIGNMENT 1\ASSIGNMENT 1\DEBUG\STDAFX.OBJ
C:\USERS\BADUM\DESKTOP\SCHOOL\PROGRAMMING III\ASSIGNMENT 1\DEBUG\ASSIGNMENT 1.ILK
C:\USERS\BADUM\DESKTOP\SCHOOL\PROGRAMMING III\ASSIGNMENT 1\DEBUG\ASSIGNMENT 1.EXE
C:\USERS\BADUM\DESKTOP\SCHOOL\PROGRAMMING III\ASSIGNMENT 1\DEBUG\ASSIGNMENT 1.PDB
